<?xml version="1.0" encoding="UTF-8" standalone="no"?>
<svg width="317.5mm" height="43.9208mm"
 xmlns="http://www.w3.org/2000/svg" xmlns:xlink="http://www.w3.org/1999/xlink"  version="1.2" baseProfile="tiny">
<desc>Created by HiQPdf</desc>
<defs>
</defs>
<g fill="none" stroke="black" stroke-width="1" fill-rule="evenodd" stroke-linecap="square" stroke-linejoin="bevel" >

<g fill="#000000" fill-opacity="1" stroke="#000000" stroke-opacity="1" stroke-width="1" stroke-linecap="square" stroke-linejoin="miter" stroke-miterlimit="2" transform="matrix(1,0,0,1,0,0)"
>
</g>

<g fill="#000000" fill-opacity="1" stroke="#000000" stroke-opacity="1" stroke-width="1" stroke-linecap="square" stroke-linejoin="miter" stroke-miterlimit="2" transform="matrix(1,0,0,1,0,0)"
>
</g>

<g fill="#000000" fill-opacity="1" stroke="#000000" stroke-opacity="1" stroke-width="1" stroke-linecap="square" stroke-linejoin="miter" stroke-miterlimit="2" transform="matrix(1,0,0,1,0,0)"
>
</g>

<g fill="#000000" fill-opacity="1" stroke="#000000" stroke-opacity="1" stroke-width="1" stroke-linecap="square" stroke-linejoin="miter" stroke-miterlimit="2" transform="matrix(1,0,0,1,0,0)"
>
</g>

<g fill="#000000" fill-opacity="1" stroke="#000000" stroke-opacity="1" stroke-width="1" stroke-linecap="square" stroke-linejoin="miter" stroke-miterlimit="2" transform="matrix(3,0,0,3,8,8)"
>
</g>

<g fill="#000000" fill-opacity="1" stroke="#000000" stroke-opacity="1" stroke-width="1" stroke-linecap="square" stroke-linejoin="miter" stroke-miterlimit="2" transform="matrix(3,0,0,3,-1966,-67)"
>
</g>

<g fill="#000000" fill-opacity="1" stroke="#000000" stroke-opacity="1" stroke-width="1" stroke-linecap="square" stroke-linejoin="miter" stroke-miterlimit="2" transform="matrix(3,0,0,3,-1966,-70)"
>
</g>

<g fill="#000000" fill-opacity="1" stroke="#000000" stroke-opacity="1" stroke-width="1" stroke-linecap="square" stroke-linejoin="miter" stroke-miterlimit="2" transform="matrix(3,0,0,3,8,8)"
>
</g>

<g fill="#ffffff" fill-opacity="1" stroke="none" transform="matrix(3,0,0,3,8,8)"
>
<path vector-effect="none" fill-rule="evenodd" d="M68.7793,26.2211 C66.1421,25.8327 62.0308,26.972 60.534,29.2366 C60.9332,28.633 68.7674,24.192 68.5642,28.467 C68.1249,37.7206 55.3139,40.6452 60.0231,33.5845 C59.6522,34.14 59.5195,31.7383 59.1344,31.4644 C59.1344,31.4644 56.2409,36.5169 58.7816,37.6009 C60.2817,38.2412 67.6095,37.7523 69.7498,31.8263 C70.6837,29.2416 70.8141,26.5209 68.7793,26.2211 "/>
</g>

<g fill="#000000" fill-opacity="1" stroke="#000000" stroke-opacity="1" stroke-width="1" stroke-linecap="square" stroke-linejoin="miter" stroke-miterlimit="2" transform="matrix(3,0,0,3,8,8)"
>
</g>

<g fill="#ffffff" fill-opacity="1" stroke="none" transform="matrix(3,0,0,3,8,8)"
>
<path vector-effect="none" fill-rule="evenodd" d="M65.6502,36.4782 C69.0135,35.2711 72.3434,33.9997 75.6644,32.6774 C74.822,33.0128 73.8577,33.0512 73.0108,33.3882 C69.6899,34.7105 66.3599,35.9819 62.9967,37.189 C63.8531,36.8819 64.7904,36.787 65.6502,36.4782 "/>
</g>

<g fill="#000000" fill-opacity="1" stroke="#000000" stroke-opacity="1" stroke-width="1" stroke-linecap="square" stroke-linejoin="miter" stroke-miterlimit="2" transform="matrix(3,0,0,3,8,8)"
>
</g>

<g fill="#ffffff" fill-opacity="1" stroke="none" transform="matrix(3,0,0,3,8,8)"
>
<path vector-effect="none" fill-rule="evenodd" d="M46.1618,32.4971 C46.1641,30.6938 46.9551,29.0136 48.231,27.8325 C48.9232,27.1928 50.0123,27.116 50.7068,27.7534 C50.9162,27.946 51.0839,28.1921 51.1912,28.5049 C51.8529,30.4285 49.52,31.2257 48.2355,31.7056 C47.5422,31.9641 46.8534,32.2346 46.1618,32.4971 M59.0988,32.0268 C57.0561,33.5873 56.0207,34.0864 52.571,36.0004 C51.4571,36.6181 49.1643,37.0601 48.0492,36.4436 C46.9313,35.8242 46.2454,34.6397 46.1675,32.7924 C46.1692,32.7896 46.1703,32.7873 46.172,32.7851 C47.4169,32.2995 48.6629,31.8179 49.9152,31.3521 C51.1178,30.905 52.829,30.6199 53.5574,29.4404 C54.3083,28.226 53.7341,27.0325 52.4654,26.5514 C49.6419,25.4815 45.2184,28.1639 44.1372,30.5244 C43.6968,31.4859 43.4924,32.5186 43.5432,33.497 C43.5246,33.5043 43.5241,33.5659 43.5455,33.5608 C43.6567,35.2975 44.5928,36.8495 46.5277,37.4898 C47.6433,37.8596 48.7307,37.7783 49.8119,37.5519 C49.7673,37.5666 49.7221,37.5841 49.6775,37.5982 C49.7808,37.5705 49.8847,37.5429 49.988,37.5152 C50.4307,37.4158 53.8764,36.5136 60.1151,31.9783 C60.2444,31.9291 60.3624,31.8687 60.4482,31.7773 C60.6277,31.5864 59.3579,31.8292 59.0988,32.0268 "/>
</g>

<g fill="#000000" fill-opacity="1" stroke="#000000" stroke-opacity="1" stroke-width="1" stroke-linecap="square" stroke-linejoin="miter" stroke-miterlimit="2" transform="matrix(3,0,0,3,8,8)"
>
</g>

<g fill="#ffffff" fill-opacity="1" stroke="none" transform="matrix(3,0,0,3,8,8)"
>
<path vector-effect="none" fill-rule="evenodd" d="M77.5429,27.7562 C78.2345,27.1115 79.3241,27.0341 80.018,27.6766 C80.2275,27.8703 80.3957,28.1187 80.503,28.4332 C81.1647,30.372 78.8312,31.1759 77.5468,31.6586 C76.8535,31.9201 76.1653,32.1922 75.4736,32.4564 C75.4759,30.639 76.2669,28.9464 77.5429,27.7562 M88.4106,31.9827 C86.3679,33.5551 85.3325,34.0582 81.8823,35.9868 C80.7683,36.6095 78.4756,37.055 77.3611,36.4334 C76.2426,35.8095 75.5566,34.616 75.4787,32.754 C75.4804,32.7511 75.4821,32.7494 75.4832,32.7466 C76.7287,32.2577 77.9742,31.7721 79.227,31.303 C80.4296,30.8524 82.1403,30.565 82.8692,29.3766 C83.6195,28.1526 83.0453,26.9494 81.7767,26.465 C78.9532,25.3872 74.5296,28.0899 73.4485,30.4691 C73.0086,31.4379 72.8037,32.4784 72.8551,33.4642 C72.5942,33.5664 72.5891,33.5935 72.8573,33.5286 C72.9686,35.2788 73.9041,36.8427 75.8389,37.488 C76.9551,37.8601 78.0419,37.7788 79.1237,37.5507 C79.0785,37.5654 79.0339,37.5829 78.9888,37.5976 C79.0927,37.5693 79.196,37.5411 79.2999,37.5134 C79.7419,37.4135 83.1882,36.504 89.4263,31.9336 C89.5562,31.8839 89.6736,31.8235 89.76,31.7309 C89.9395,31.539 88.6698,31.7834 88.4106,31.9827 "/>
</g>

<g fill="#000000" fill-opacity="1" stroke="#000000" stroke-opacity="1" stroke-width="1" stroke-linecap="square" stroke-linejoin="miter" stroke-miterlimit="2" transform="matrix(3,0,0,3,8,8)"
>
</g>

<g fill="#ffffff" fill-opacity="1" stroke="none" transform="matrix(3,0,0,3,8,8)"
>
<path vector-effect="none" fill-rule="evenodd" d="M66.0732,24.2151 L63.4185,24.927 C57.9059,32.8459 53.475,41.3198 48.0154,49.2743 L50.6695,48.5618 C56.1291,40.6073 60.5606,32.1334 66.0732,24.2151 "/>
</g>

<g fill="#000000" fill-opacity="1" stroke="#000000" stroke-opacity="1" stroke-width="1" stroke-linecap="square" stroke-linejoin="miter" stroke-miterlimit="2" transform="matrix(3,0,0,3,8,8)"
>
</g>

<g fill="#ffffff" fill-opacity="1" stroke="none" transform="matrix(3,0,0,3,8,8)"
>
<path vector-effect="none" fill-rule="evenodd" d="M44.4785,33.0609 C41.5319,34.4108 38.9901,35.4536 35.5247,36.8854 C35.2418,37.0023 34.9561,36.7132 35.0866,36.4365 C35.6918,35.1549 38.1997,32.5279 38.5424,32.1208 C40.558,29.7236 41.5167,25.9324 37.2038,26.2773 C36.0808,26.3671 35.0425,26.6325 34.0731,27.0305 C37.0491,23.0095 40.5173,18.2065 43.5373,14.0489 L40.8753,14.7625 C37.0869,19.9635 25.4801,35.2639 23.7095,37.8249 C24.1567,37.7052 26.3637,37.1135 26.3637,37.1135 C28.1765,34.8399 29.9494,32.5358 31.6979,30.2136 C32.407,29.2719 33.2279,28.4115 34.1883,27.7283 C34.3221,27.6335 34.4576,27.5403 34.5948,27.45 C35.2508,27.0181 36.1158,26.9328 36.7803,27.3517 C38.3471,28.3403 37.3923,31.0125 35.8883,32.8322 C35.0747,33.8163 31.0119,37.8249 32.9163,37.8249 C34.5982,37.8249 40.7804,34.9009 44.5513,33.3036 C43.7163,33.6571 45.3073,32.6809 44.4785,33.0609 "/>
</g>

<g fill="#000000" fill-opacity="1" stroke="#000000" stroke-opacity="1" stroke-width="1" stroke-linecap="square" stroke-linejoin="miter" stroke-miterlimit="2" transform="matrix(3,0,0,3,8,8)"
>
</g>

<g fill="#ffffff" fill-opacity="1" stroke="none" transform="matrix(3,0,0,3,8,8)"
>
<path vector-effect="none" fill-rule="evenodd" d="M123.35,6.62686 C122.944,4.55087 120.212,5.2583 118.698,5.6665 C109.804,8.06656 101.692,14.8253 95.4142,21.3113 C92.3056,24.5232 87.807,29.4628 87.9165,34.2737 C88.008,38.2884 92.2209,38.0733 95.2387,37.5296 C101.258,36.4445 107.158,34.1393 112.629,31.414 L111.368,31.414 C111.363,31.4168 111.357,31.4185 111.351,31.4214 C106.488,33.9372 100.632,36.7895 94.678,37.1485 C90.2121,37.4179 89.9665,34.5633 91.256,31.1413 C91.0635,31.2435 90.8699,31.3491 90.6773,31.4501 C90.6796,31.4501 90.6813,31.4501 90.6835,31.4496 L90.9647,31.3434 C90.8445,31.4067 90.7575,31.4349 90.6835,31.4496 L90.666,31.4564 C90.67,31.4541 90.6734,31.4524 90.6773,31.4501 C90.2731,31.5264 90.4374,31.0086 89.7774,31.3553 C90.3792,31.0391 90.9675,30.7246 91.5496,30.4107 C93.1627,26.6404 96.3492,22.4167 97.7268,20.964 C101.156,17.3484 105.088,14.1788 109.227,11.3937 C111.605,9.79308 116.381,6.21697 118.844,6.12438 C121.489,6.02558 120.659,8.10722 119.642,9.72307 C117.29,13.4623 113.277,16.3372 109.753,18.9016 C103.545,23.42 98.1322,26.864 91.5496,30.4107 C91.4446,30.6569 91.3469,30.9002 91.256,31.1413 C99.3517,26.8651 107.639,21.9938 114.829,16.3756 C116.806,14.8309 123.976,9.82978 123.35,6.62686 "/>
</g>

<g fill="#000000" fill-opacity="1" stroke="#000000" stroke-opacity="1" stroke-width="1" stroke-linecap="square" stroke-linejoin="miter" stroke-miterlimit="2" transform="matrix(3,0,0,3,8,8)"
>
</g>

<g fill="#ffffff" fill-opacity="1" stroke="none" transform="matrix(3,0,0,3,8,8)"
>
<path vector-effect="none" fill-rule="evenodd" d="M89.7772,31.3554 C90.4372,31.0087 90.2729,31.5264 90.6771,31.4502 C90.8696,31.3491 91.0633,31.2436 91.2564,31.1414 C91.3473,30.9003 91.4444,30.657 91.55,30.4108 C90.9673,30.7247 90.379,31.0392 89.7772,31.3554 "/>
</g>

<g fill="#000000" fill-opacity="1" stroke="#000000" stroke-opacity="1" stroke-width="1" stroke-linecap="square" stroke-linejoin="miter" stroke-miterlimit="2" transform="matrix(3,0,0,3,8,8)"
>
</g>

<g fill="#ffffff" fill-opacity="1" stroke="none" transform="matrix(3,0,0,3,8,8)"
>
<path vector-effect="none" fill-rule="evenodd" d="M37.473,2.85631 C34.7951,0.128218 30.1977,0.267107 26.8333,1.0756 C21.9055,2.25898 14.2085,5.93502 18.4119,12.0484 C21.0587,15.8978 26.0739,18.3187 27.3222,23.1318 C28.6513,28.256 24.3101,32.5836 20.3247,34.7821 C15.8989,37.2245 8.23007,38.4446 4.48854,33.8093 C1.3003,29.8595 3.63488,22.98 7.91051,21.0468 C3.73425,22.0749 -3.09954,30.1632 2.61128,35.3484 C7.61128,39.8883 17.6039,37.0546 22.9783,34.0476 C27.5622,31.4827 32.1286,26.3268 29.3293,20.7097 C27.1709,16.3782 20.2411,13.5276 19.7274,8.44913 C19.0832,2.08339 28.098,0.410513 32.3171,2.12517 C39.117,4.8894 33.7952,9.45466 29.96,12.3595 L31.5657,12.3595 C31.6622,12.3177 31.7537,12.2697 31.8355,12.2082 C34.2141,10.4348 40.7301,6.1744 37.473,2.85631 "/>
</g>

<g fill="#000000" fill-opacity="1" stroke="#000000" stroke-opacity="1" stroke-width="1" stroke-linecap="square" stroke-linejoin="miter" stroke-miterlimit="2" transform="matrix(3,0,0,3,8,8)"
>
</g>

<g fill="#000000" fill-opacity="1" stroke="#000000" stroke-opacity="1" stroke-width="1" stroke-linecap="square" stroke-linejoin="miter" stroke-miterlimit="2" transform="matrix(3,0,0,3,8,8)"
>
</g>

<g fill="#000000" fill-opacity="1" stroke="#000000" stroke-opacity="1" stroke-width="1" stroke-linecap="square" stroke-linejoin="miter" stroke-miterlimit="2" transform="matrix(3,0,0,3,-1966,-70)"
>
</g>

<g fill="#000000" fill-opacity="1" stroke="#000000" stroke-opacity="1" stroke-width="1" stroke-linecap="square" stroke-linejoin="miter" stroke-miterlimit="2" transform="matrix(3,0,0,3,-1966,-70)"
>
</g>

<g fill="#000000" fill-opacity="1" stroke="#000000" stroke-opacity="1" stroke-width="1" stroke-linecap="square" stroke-linejoin="miter" stroke-miterlimit="2" transform="matrix(3,0,0,3,-1966,-67)"
>
</g>

<g fill="#000000" fill-opacity="1" stroke="#000000" stroke-opacity="1" stroke-width="1" stroke-linecap="square" stroke-linejoin="miter" stroke-miterlimit="2" transform="matrix(3,0,0,3,8,8)"
>
</g>

<g fill="#000000" fill-opacity="1" stroke="#000000" stroke-opacity="1" stroke-width="1" stroke-linecap="square" stroke-linejoin="miter" stroke-miterlimit="2" transform="matrix(3,0,0,3,8,8)"
>
</g>

<g fill="#000000" fill-opacity="1" stroke="#000000" stroke-opacity="1" stroke-width="1" stroke-linecap="square" stroke-linejoin="miter" stroke-miterlimit="2" transform="matrix(3,0,0,3,8,8)"
>
</g>

<g fill="#000000" fill-opacity="1" stroke="#000000" stroke-opacity="1" stroke-width="1" stroke-linecap="square" stroke-linejoin="miter" stroke-miterlimit="2" transform="matrix(1,0,0,1,0,0)"
>
</g>

<g fill="#000000" fill-opacity="1" stroke="#000000" stroke-opacity="1" stroke-width="1" stroke-linecap="square" stroke-linejoin="miter" stroke-miterlimit="2" transform="matrix(1,0,0,1,0,0)"
>
</g>

<g fill="#000000" fill-opacity="1" stroke="#000000" stroke-opacity="1" stroke-width="1" stroke-linecap="square" stroke-linejoin="miter" stroke-miterlimit="2" transform="matrix(1,0,0,1,0,0)"
>
</g>

<g fill="#000000" fill-opacity="1" stroke="#000000" stroke-opacity="1" stroke-width="1" stroke-linecap="square" stroke-linejoin="miter" stroke-miterlimit="2" transform="matrix(1,0,0,1,0,0)"
>
</g>

<g fill="#000000" fill-opacity="1" stroke="#000000" stroke-opacity="1" stroke-width="1" stroke-linecap="square" stroke-linejoin="miter" stroke-miterlimit="2" transform="matrix(3,0,0,3,8,8)"
>
</g>

<g fill="#000000" fill-opacity="1" stroke="#000000" stroke-opacity="1" stroke-width="1" stroke-linecap="square" stroke-linejoin="miter" stroke-miterlimit="2" transform="matrix(3,0,0,3,-1966,-67)"
>
</g>

<g fill="#000000" fill-opacity="1" stroke="#000000" stroke-opacity="1" stroke-width="1" stroke-linecap="square" stroke-linejoin="miter" stroke-miterlimit="2" transform="matrix(3,0,0,3,-1966,-70)"
>
</g>

<g fill="#000000" fill-opacity="1" stroke="#000000" stroke-opacity="1" stroke-width="1" stroke-linecap="square" stroke-linejoin="miter" stroke-miterlimit="2" transform="matrix(3,0,0,3,8,8)"
>
</g>

<g fill="#000000" fill-opacity="1" stroke="#000000" stroke-opacity="1" stroke-width="1" stroke-linecap="square" stroke-linejoin="miter" stroke-miterlimit="2" transform="matrix(3,0,0,3,8,8)"
>
</g>

<g fill="#000000" fill-opacity="1" stroke="#000000" stroke-opacity="1" stroke-width="1" stroke-linecap="square" stroke-linejoin="miter" stroke-miterlimit="2" transform="matrix(3,0,0,3,-1966,-70)"
>
</g>

<g fill="#000000" fill-opacity="1" stroke="#000000" stroke-opacity="1" stroke-width="1" stroke-linecap="square" stroke-linejoin="miter" stroke-miterlimit="2" transform="matrix(3,0,0,3,-1966,-70)"
>
</g>

<g fill="#000000" fill-opacity="1" stroke="#000000" stroke-opacity="1" stroke-width="1" stroke-linecap="square" stroke-linejoin="miter" stroke-miterlimit="2" transform="matrix(3,0,0,3,-1966,-67)"
>
</g>

<g fill="#000000" fill-opacity="1" stroke="#000000" stroke-opacity="1" stroke-width="1" stroke-linecap="square" stroke-linejoin="miter" stroke-miterlimit="2" transform="matrix(3,0,0,3,8,8)"
>
</g>

<g fill="#000000" fill-opacity="1" stroke="#000000" stroke-opacity="1" stroke-width="1" stroke-linecap="square" stroke-linejoin="miter" stroke-miterlimit="2" transform="matrix(3,0,0,3,8,8)"
>
</g>

<g fill="#000000" fill-opacity="1" stroke="#000000" stroke-opacity="1" stroke-width="1" stroke-linecap="square" stroke-linejoin="miter" stroke-miterlimit="2" transform="matrix(3,0,0,3,8,8)"
>
</g>

<g fill="#000000" fill-opacity="1" stroke="#000000" stroke-opacity="1" stroke-width="1" stroke-linecap="square" stroke-linejoin="miter" stroke-miterlimit="2" transform="matrix(1,0,0,1,0,0)"
>
</g>

<g fill="#000000" fill-opacity="1" stroke="#000000" stroke-opacity="1" stroke-width="1" stroke-linecap="square" stroke-linejoin="miter" stroke-miterlimit="2" transform="matrix(1,0,0,1,0,0)"
>
</g>

<g fill="#000000" fill-opacity="1" stroke="#000000" stroke-opacity="1" stroke-width="1" stroke-linecap="square" stroke-linejoin="miter" stroke-miterlimit="2" transform="matrix(1,0,0,1,0,0)"
>
</g>

<g fill="#000000" fill-opacity="1" stroke="#000000" stroke-opacity="1" stroke-width="1" stroke-linecap="square" stroke-linejoin="miter" stroke-miterlimit="2" transform="matrix(1,0,0,1,0,0)"
>
</g>

<g fill="#000000" fill-opacity="1" stroke="#000000" stroke-opacity="1" stroke-width="1" stroke-linecap="square" stroke-linejoin="miter" stroke-miterlimit="2" transform="matrix(1,0,0,1,0,0)"
>
</g>

<g fill="#000000" fill-opacity="1" stroke="#000000" stroke-opacity="1" stroke-width="1" stroke-linecap="square" stroke-linejoin="miter" stroke-miterlimit="2" transform="matrix(1,0,0,1,0,0)"
>
</g>
</g>
</svg>
